…
Let’s start with data mining. If you want to remember the codes, then you need to practice them everyday, right?

library(tidyverse)
theme_set(theme_light())
library(janitor)

The dataset used in this blog comes from TidyTuesday Dataset, 2020-05-26, about cocktail recipes.

boston_cocktails <- readr::read_csv("https://raw.githubusercontent.com/rfordatascience/tidytuesday/master/data/2020/2020-05-26/boston_cocktails.csv")

boston_cocktails %>% 
  count(ingredient, sort = TRUE)

## # A tibble: 569 × 2
##    ingredient            n
##    <chr>             <int>
##  1 Gin                 176
##  2 Fresh lemon juice   138
##  3 Simple Syrup        115
##  4 Vodka               114
##  5 Light Rum           113
##  6 Dry Vermouth        107
##  7 Fresh Lime Juice    107
##  8 Triple Sec          107
##  9 Powdered Sugar       90
## 10 Grenadine            85
## # … with 559 more rows
…
Now it looks much better, doesn’t it?

cocktails_parsed

## # A tibble: 2,561 × 4
##    name                 category          ingredient     measure_number
##    <chr>                <chr>             <chr>                   <dbl>
##  1 Gauguin              Cocktail Classics light rum                2   
##  2 Gauguin              Cocktail Classics lemon juice              1   
##  3 Gauguin              Cocktail Classics lime juice               1   
##  4 Fort Lauderdale      Cocktail Classics light rum                1.5 
##  5 Fort Lauderdale      Cocktail Classics sweet vermouth           0.5 
##  6 Fort Lauderdale      Cocktail Classics orange juice             0.25
##  7 Fort Lauderdale      Cocktail Classics lime juice               0.25
##  8 Cuban Cocktail No. 1 Cocktail Classics lime juice               0.5 
##  9 Cuban Cocktail No. 1 Cocktail Classics powdered sugar           0.5 
## 10 Cuban Cocktail No. 1 Cocktail Classics light rum                2   
## # … with 2,551 more rows

It’s time for modeling, in order to apply dimensionality reduction method, you should at least have a high dimension dataset, right? What I gonna do is make the dataset wider by using pivot_wider() from package tidyr.

cocktails_df <- cocktails_parsed %>% 
  pivot_wider(names_from = ingredient, values_from = measure_number, values_fill = 0) %>% 
  janitor::clean_names() %>% 
  na.omit()

cocktails_df

## # A tibble: 937 × 42
##    name    category light_rum lemon_juice lime_juice sweet_vermouth orange_juice
##    <chr>   <chr>        <dbl>       <dbl>      <dbl>          <dbl>        <dbl>
##  1 Gauguin Cocktai…      2           1          1               0           0   
##  2 Fort L… Cocktai…      1.5         0          0.25            0.5         0.25
##  3 Cuban … Cocktai…      2           0          0.5             0           0   
##  4 Cool C… Cocktai…      0           0          0               0           1   
##  5 John C… Whiskies      0           1          0               0           0   
##  6 Cherry… Cocktai…      1.25        0          0               0           0   
##  7 Casa B… Cocktai…      2           0          1.5             0           0   
##  8 Caribb… Cocktai…      0.5         0          0               0           0   
##  9 Amber … Cordial…      0           0.25       0               0           0   
## 10 The Jo… Whiskies      0           0.5        0               0           0   
## # … with 927 more rows, and 35 more variables: powdered_sugar <dbl>,
## #   dark_rum <dbl>, cranberry_juice <dbl>, pineapple_juice <dbl>,
## #   bourbon_whiskey <dbl>, simple_syrup <dbl>, cherry_flavored_brandy <dbl>,
## #   light_cream <dbl>, triple_sec <dbl>, maraschino <dbl>, amaretto <dbl>,
## #   grenadine <dbl>, apple_brandy <dbl>, brandy <dbl>, gin <dbl>,
## #   anisette <dbl>, dry_vermouth <dbl>, apricot_flavored_brandy <dbl>,
## #   bitters <dbl>, straight_rye_whiskey <dbl>, benedictine <dbl>, …
…
